…
#create a data frame to identify the start & end stations  mostly patronised by cassual riders
> casual_start <- all_trips_cleaned %>% filter(member_casual=="casual")%>% group_by(start_station_name,member_casual)%>% count(start_station_name)



> arrange(casual_start,desc(n))
# A tibble: 1,301 × 3
# Groups:   start_station_name, member_casual [1,301]
   start_station_name                 member_casual     n
   <chr>                              <chr>         <int>
 1 Streeter Dr & Grand Ave            casual        58036
 2 DuSable Lake Shore Dr & Monroe St  casual        31135
 3 Millennium Park                    casual        26416
 4 Michigan Ave & Oak St              casual        25232
 5 DuSable Lake Shore Dr & North Blvd casual        24128
 6 Shedd Aquarium                     casual        19980
 7 Theater on the Lake                casual        18446
 8 Wells St & Concord Ln              casual        16622
 9 Clark St & Armitage Ave            casual        13957
10 Clark St & Lincoln Ave             casual        13856
# … with 1,291 more rows



> casual_end <- all_trips_cleaned %>% filter(member_casual=="casual")%>% group_by(end_station_name,member_casual)%>% count(end_station_name)


> arrange(casual_end,desc(n))
# A tibble: 1,347 × 3
# Groups:   end_station_name, member_casual [1,347]
   end_station_name                   member_casual     n
   <chr>                              <chr>         <int>
 1 Streeter Dr & Grand Ave            casual        60992
 2 DuSable Lake Shore Dr & Monroe St  casual        29337
 3 Millennium Park                    casual        28005
 4 DuSable Lake Shore Dr & North Blvd casual        27582
 5 Michigan Ave & Oak St              casual        27016
 6 Theater on the Lake                casual        19815
 7 Shedd Aquarium                     casual        19068
 8 Wells St & Concord Ln              casual        16100
 9 Clark St & Armitage Ave            casual        14204
10 Clark St & Lincoln Ave             casual        14118
# … with 1,337 more rows
# ? Use `print(n = ...)` to see more rows
…
