…
#create a data frame to identify the start & end stations  mostly patronised by cassual riders
> casual_start <- all_trips_2 %>% filter(member_casual=="casual")%>% group_by(start_station_name,member_casual)%>% count(start_station_name)



> arrange(casual_start,desc(n))
# A tibble: 1,393 × 3
# Groups:   start_station_name, member_casual [1,393]
   start_station_name                 member_casual      n
   <chr>                              <chr>          <int>
 1 <NA>                               casual        375534
 2 Streeter Dr & Grand Ave            casual         60942
 3 DuSable Lake Shore Dr & Monroe St  casual         32717
 4 Millennium Park                    casual         28030
 5 Michigan Ave & Oak St              casual         26677
 6 DuSable Lake Shore Dr & North Blvd casual         25539
 7 Shedd Aquarium                     casual         20865
 8 Theater on the Lake                casual         19522
 9 Wells St & Concord Ln              casual         17918
10 Clark St & Armitage Ave            casual         14952
# … with 1,383 more rows
…
